#CurrencyCode_Group_Account,Trade Date,Settlement date,Trade #,Action,Quantity,Symbol,Description,TB,EX,Price,Gross amount,Comm,SEC fees,Interest amount,Net amount,Net amount (account currency)
U.S. stocks and options - Account 2645853520,16/01/13,22/01/13,QT6AHF,Sell,200,HPQ,"HEWLETT PACKARD CO, SHORT.", ,NY,17.20,"3,440.00",(4.95),(0.08),0,"3,434.97","3,434.99"
U.S. stocks and options - Account 2645853520,16/01/13,22/01/13,QT6AHE,Buy,200,VMW,VMWARE INC CL A, ,NY,95.46,"(19,092.00)",(4.95),0.00,0,"(19,096.95)","(19,096.95)"
U.S. stocks and options - Account 2645853520,18/01/13,24/01/13,QT74YZ,Buy,200,HPQ,"HEWLETT PACKARD CO, COVER SHORT.", ,NY,16.98,"(3,396.00)",(4.95),0.00,0,"(3,400.95)","(3,400.95)"
U.S. stocks and options - Account 2645853520,18/01/13,24/01/13,QT74YY,Buy,100,VMW,VMWARE INC CL A, ,NY,94.01,"(9,401.00)",(4.95),0.00,0,"(9,405.95)","(9,405.94)"
U.S. stocks and options - Account 2645853520,24/01/13,29/01/13,QT8UAD,Sell,300,VMW,VMWARE INC CL A, ,NY,96.37,"28,911.00",(4.95),(0.65),0,"28,905.40","28,905.40"
U.S. stocks and options - Account 2645853520,28/01/13,31/01/13,QT9T9G,Sell,200,APKT,"ACME PACKET INC, SHORT.", ,NY,24.55,"4,910.00",(4.95),(0.11),0,"4,904.94","4,904.94"
U.S. stocks and options - Account 2645853520,28/01/13,31/01/13,QT9T9F,Buy,200,APKT,"ACME PACKET INC, COVER SHORT.", ,NY,24.07,"(4,814.00)",(4.95),0.00,0,"(4,818.95)","(4,818.95)"
U.S. stocks and options - Account 2645853520,28/01/13,31/01/13,QT9T9E,Sell,20,AAPL,APPLE INC, ,NY,452.89,"9,057.80",(4.95),(0.21),0,"9,052.64","9,052.64"
U.S. stocks and options - Account 2645853520,28/01/13,31/01/13,QT9T9D,Buy,20,AAPL,APPLE INC, ,NY,445.63,"(8,912.60)",(4.95),0.00,0,"(8,917.55)","(8,917.53)"
U.S. stocks and options - Account 2645853520,29/01/13,01/02/13,QTAAG5,Buy,200,STX,SEAGATE TECHNOLOGY PLC, ,NY,34.10,"(6,820.00)",(4.95),0.00,0,"(6,824.95)","(6,824.95)"
U.S. stocks and options - Account 2645853520,29/01/13,01/02/13,QTAAG4,Buy,200,VMW,VMWARE INC CL A, ,NY,78.52,"(15,704.00)",(4.95),0.00,0,"(15,708.95)","(15,708.71)"
U.S. stocks and options - Account 2645853520,30/01/13,04/02/13,QTAUDM,Buy,100,CTXS,CITRIX SYSTEMS INC, ,NY,67.28,"(6,728.00)",(4.95),0.00,0,"(6,732.95)","(6,732.95)"
U.S. stocks and options - Account 2645853520,30/01/13,04/02/13,QTAUDN,Sell,200,VMW,VMWARE INC CL A, ,NY,79.09,"15,818.00",(4.95),(0.36),0,"15,812.69","15,812.71"
U.S. stocks and options - Account 2645853520,31/01/13,05/02/13,QTB9LV,Sell,100,CTXS,CITRIX SYSTEMS INC, ,NY,73.64,"7,364.00",(4.95),(0.17),0,"7,358.88","7,358.88"
U.S. stocks and options - Account 2645853520,31/01/13,05/02/13,QTB9LW,Sell,200,STX,SEAGATE TECHNOLOGY PLC, ,NY,34.29,"6,858.00",(4.95),(0.16),0,"6,852.89","6,852.89"
U.S. stocks and options - Account 2645853520,05/02/13,08/02/13,QTCR2S,Sell,150,CTXS,CITRIX SYSTEMS INC, ,NY,73.62,"11,043.00",(4.95),(0.25),0,"11,037.80","11,037.95"
U.S. stocks and options - Account 2645853520,05/02/13,08/02/13,QTCR2R,Buy,150,CTXS,CITRIX SYSTEMS INC, ,NY,73.13,"(10,969.50)",(4.95),0.00,0,"(10,974.45)","(10,974.45)"
U.S. stocks and options - Account 2645853520,05/02/13,08/02/13,QTCR2U,Sell,300,QCOM,"QUALCOMM INC, SHORT.", ,NY,66.86,"20,058.00",(9.90),(0.45),0,"20,047.65","20,046.65"
U.S. stocks and options - Account 2645853520,05/02/13,08/02/13,QTCR2T,Buy,150,VMW,VMWARE INC CL A, ,NY,78.74,"(11,811.00)",(4.95),0.00,0,"(11,815.95)","(11,815.94)"
U.S. stocks and options - Account 2645853520,07/02/13,12/02/13,QTDL2H,Sell,100,QCOM,"QUALCOMM INC, SHORT.", ,NY,66.91,"6,691.00",(4.95),(0.15),0,"6,685.90","6,685.90"
U.S. stocks and options - Account 2645853520,07/02/13,12/02/13,QTDL2G,Buy,400,QCOM,"QUALCOMM INC, COVER SHORT.", ,NY,66.77,"(26,708.00)",(4.95),0.00,0,"(26,712.95)","(26,712.95)"
U.S. stocks and options - Account 2645853520,07/02/13,12/02/13,QTDL2F,Sell,350,VMW,VMWARE INC CL A, ,NY,79.19,"27,716.50",(4.95),(0.63),0,"27,710.92","27,711.67"
U.S. stocks and options - Account 2645853520,07/02/13,12/02/13,QTDL2E,Buy,200,VMW,VMWARE INC CL A, ,NY,78.79,"(15,758.00)",(4.95),0.00,0,"(15,762.95)","(15,762.75)"
U.S. stocks and options - Account 2645853520,08/02/13,13/02/13,QTE7FL,Sell,300,RVBD,RIVERBED TECHNOLOGY INC, ,NY,16.22,"4,866.00",(4.95),(0.11),0,"4,860.94","4,860.94"
U.S. stocks and options - Account 2645853520,08/02/13,13/02/13,QTE7FK,Buy,300,RVBD,RIVERBED TECHNOLOGY INC, ,NY,16.06,"(4,818.00)",(4.95),0.00,0,"(4,822.95)","(4,822.95)"
U.S. stocks and options - Account 2645853520,11/02/13,14/02/13,QTEL7H,Buy,200,RVBD,RIVERBED TECHNOLOGY INC, ,NY,16.19,"(3,238.00)",(4.95),0.00,0,"(3,242.95)","(3,242.95)"
U.S. stocks and options - Account 2645853520,12/02/13,15/02/13,QTF1HH,Buy,200,QCOM,QUALCOMM INC, ,NY,66.00,"(13,200.00)",(4.95),0.00,0,"(13,204.95)","(13,204.95)"
U.S. stocks and options - Account 2645853520,12/02/13,15/02/13,QTF1HI,Buy,400,RVBD,RIVERBED TECHNOLOGY INC, ,NY,16.19,"(6,476.00)",(4.95),0.00,0,"(6,480.95)","(6,480.75)"
U.S. stocks and options - Account 2645853520,13/02/13,19/02/13,QTFFAQ,Buy,100,CTXS,CITRIX SYSTEMS INC, ,NY,72.80,"(7,280.00)",(5.25),0.00,0,"(7,285.25)","(7,285.25)"
U.S. stocks and options - Account 2645853520,13/02/13,19/02/13,QTFFAR,Buy,500,VMW,VMWARE INC CL A, ,NY,75.26,"(37,630.00)",(14.85),0.00,0,"(37,644.85)","(37,646.85)"
U.S. stocks and options - Account 2645853520,19/02/13,22/02/13,QTGZJR,Sell,100,CTXS,CITRIX SYSTEMS INC, ,NY,73.29,"7,329.00",(4.95),(0.17),0,"7,323.88","7,323.88"
U.S. stocks and options - Account 2645853520,19/02/13,22/02/13,QTGZJS,Buy,200,QCOM,QUALCOMM INC, ,NY,65.60,"(13,120.00)",(4.95),0.00,0,"(13,124.95)","(13,124.95)"
U.S. stocks and options - Account 2645853520,19/02/13,22/02/13,QTGZJT,Sell,600,RVBD,RIVERBED TECHNOLOGY INC, ,NY,16.49,"9,894.00",(6.00),(0.23),0,"9,887.77","9,888.77"
U.S. stocks and options - Account 2645853520,20/02/13,25/02/13,QTHGX5,Buy,100,QCOM,QUALCOMM INC, ,NY,65.47,"(6,547.00)",(4.95),0.00,0,"(6,551.95)","(6,551.45)"
U.S. stocks and options - Account 2645853520,20/02/13,25/02/13,QTHGX6,Buy,100,BBRY,RESEARCH IN MOTION LTD, ,NY,13.94,"(1,394.00)",(4.95),0.00,0,"(1,398.95)","(1,398.95)"
U.S. stocks and options - Account 2645853520,25/02/13,28/02/13,QTJ0E8,Sell,500,QCOM,QUALCOMM INC,A,NY,66.18,"33,090.00",(5.00),(0.75),0,"33,084.25","33,081.75"
U.S. stocks and options - Account 2645853520,25/02/13,28/02/13,QTJ0E9,Buy,200,VMW,VMWARE INC CL A,A,NY,72.55,"(14,510.00)",(4.95),0.00,0,"(14,514.95)","(14,514.75)"
U.S. stocks and options - Account 2645853520,06/03/13,11/03/13,QTMBDZ,Sell,200,AMRN,"AMARIN CORPORATION PLC, SPONSORED ADR NEW, SHORT.",A,NY,8.39,"1,678.00",(4.95),(0.04),0,"1,673.01","1,673.17"
U.S. stocks and options - Account 2645853520,07/03/13,12/03/13,QTMUVR,Buy,300,VMW,VMWARE INC CL A,A,NY,73.91,"(22,173.00)",(4.95),0.00,0,"(22,177.95)","(22,177.92)"
U.S. stocks and options - Account 2645853520,11/03/13,14/03/13,QTNOGH,Sell,100,BBRY,RESEARCH IN MOTION LTD,A,NY,14.42,"1,442.00",(4.95),(0.04),0,"1,437.01","1,437.01"
U.S. stocks and options - Account 2645853520,11/03/13,14/03/13,QTNOGI,Sell,"1,000",VMW,VMWARE INC CL A,A,NY,75.58,"75,580.00",(9.95),(1.70),0,"75,568.35","75,568.35"
U.S. stocks and options - Account 2645853520,13/03/13,18/03/13,QTOITN,Buy,200,AMRN,"AMARIN CORPORATION PLC, SPONSORED ADR NEW, COVER SHORT.",A,NY,8.49,"(1,698.00)",(4.95),0.00,0,"(1,702.95)","(1,702.95)"
U.S. stocks and options - Account 2645853520,13/03/13,18/03/13,QTOITP,Sell,"1,200",VMW,"VMWARE INC CL A, SHORT.",A,NY,80.26,"96,312.00",(24.75),(2.16),0,"96,285.09","96,286.74"
U.S. stocks and options - Account 2645853520,13/03/13,18/03/13,QTOITO,Buy,200,VMW,"VMWARE INC CL A, COVER SHORT.",A,NY,78.76,"(15,752.00)",(4.95),0.00,0,"(15,756.95)","(15,756.95)"
U.S. stocks and options - Account 2645853520,14/03/13,19/03/13,QTOWMI,Sell,300,VMW,"VMWARE INC CL A, SHORT.",A,NY,85.23,"25,569.00",(4.95),(0.58),0,"25,563.47","25,563.47"
U.S. stocks and options - Account 2645853520,14/03/13,19/03/13,QTOWMH,Buy,500,VMW,"VMWARE INC CL A, COVER SHORT.",A,NY,84.30,"(42,150.00)",(5.00),0.00,0,"(42,155.00)","(42,154.95)"
U.S. stocks and options - Account 2645853520,19/03/13,22/03/13,QTQ74I,Sell,400,VMW,"VMWARE INC CL A, SHORT.",A,NY,82.06,"32,824.00",(4.95),(0.74),0,"32,818.31","32,818.31"
U.S. stocks and options - Account 2645853520,19/03/13,22/03/13,QTQ74G,Buy,"1,000",VMW,VMWARE INC CL A,A,NY,81.294,"(81,294.79)",(14.85),0.00,0,"(81,309.64)","(81,309.64)"
U.S. stocks and options - Account 2645853520,19/03/13,22/03/13,QTQ74H,Buy,"1,200",VMW,"VMWARE INC CL A, COVER SHORT.",A,NY,82.07,"(98,484.00)",(9.95),0.00,0,"(98,493.95)","(98,493.95)"
U.S. stocks and options - Account 2645853520,20/03/13,25/03/13,QTQL2V,Sell,"1,000",VMW,VMWARE INC CL A,A,NY,82.29,"82,290.60",(9.95),(1.85),0,"82,278.80","82,278.80"
U.S. stocks and options - Account 2645853520,21/03/13,26/03/13,QTQZVQ,Sell,400,CTXS,CITRIX SYSTEMS INC,A,NY,72.25,"28,900.00",(4.95),(0.65),0,"28,894.40","28,894.40"
U.S. stocks and options - Account 2645853520,21/03/13,26/03/13,QTQZVP,Buy,400,CTXS,CITRIX SYSTEMS INC,A,NY,71.929,"(28,771.90)",(4.95),0.00,0,"(28,776.85)","(28,776.85)"
U.S. stocks and options - Account 2645853520,21/03/13,26/03/13,QTQZVO,Buy,400,CSCO,CISCO SYSTEMS INC,A,NY,20.93,"(8,372.00)",(4.95),0.00,0,"(8,376.95)","(8,376.95)"
U.S. stocks and options - Account 2645853520,21/03/13,26/03/13,QTQZVR,Buy,100,EMC,EMC CORP-MASS,A,NY,24.649,"(2,464.99)",(4.95),0.00,0,"(2,469.94)","(2,469.94)"
U.S. stocks and options - Account 2645853520,21/03/13,26/03/13,QTQZVS,Buy,500,ORCL,ORACLE CORP,A,NY,32.678,"(16,339.00)",(9.90),0.00,0,"(16,348.90)","(16,348.90)"
U.S. stocks and options - Account 2645853520,21/03/13,26/03/13,QTQZVT,Buy,100,RVBD,RIVERBED TECHNOLOGY INC,A,NY,14.56,"(1,456.00)",(4.95),0.00,0,"(1,460.95)","(1,460.95)"
U.S. stocks and options - Account 2645853520,22/03/13,27/03/13,QTREO3,Sell,100,RVBD,RIVERBED TECHNOLOGY INC,A,NY,14.761,"1,476.10",(4.95),(0.04),0,"1,471.11","1,471.11"
U.S. stocks and options - Account 2645853520,25/03/13,28/03/13,QTRTL7,Buy,200,CSCO,CISCO SYSTEMS INC,A,NY,20.95,"(4,190.00)",(4.95),0.00,0,"(4,194.95)","(4,194.95)"
U.S. stocks and options - Account 2645853520,25/03/13,28/03/13,QTRTL8,Buy,400,EMC,EMC CORP-MASS,A,NY,23.82,"(9,528.00)",(4.95),0.00,0,"(9,532.95)","(9,532.95)"
U.S. stocks and options - Account 2645853520,25/03/13,28/03/13,QTRTL9,Buy,200,VMW,VMWARE INC CL A,A,NY,76.279,"(15,255.80)",(4.95),0.00,0,"(15,260.75)","(15,260.75)"
U.S. stocks and options - Account 2645853520,26/03/13,01/04/13,QTS70G,Buy,800,VMW,VMWARE INC CL A,A,NY,77.004,"(61,603.97)",(14.85),0.00,0,"(61,618.82)","(61,618.83)"
U.S. stocks and options - Account 2645853520,27/03/13,02/04/13,QTSJM4,Sell,100,AAPL,APPLE INC,A,NY,452.69,"45,269.00",(4.95),(1.02),0,"45,263.03","45,263.03"
U.S. stocks and options - Account 2645853520,27/03/13,02/04/13,QTSJM3,Buy,100,AAPL,APPLE INC,A,NY,451.72,"(45,172.00)",(4.95),0.00,0,"(45,176.95)","(45,176.95)"
U.S. stocks and options - Account 2645853520,27/03/13,02/04/13,QTSJM6,Sell,700,EMC,EMC CORP-MASS,A,NY,24.06,"16,842.00",(7.00),(0.38),0,"16,834.62","16,834.62"
U.S. stocks and options - Account 2645853520,27/03/13,02/04/13,QTSJM5,Buy,200,EMC,EMC CORP-MASS,A,NY,23.949,"(4,789.98)",(4.95),0.00,0,"(4,794.93)","(4,794.93)"
U.S. stocks and options - Account 2645853520,27/03/13,02/04/13,QTSJM8,Sell,"2,200",VMW,VMWARE INC CL A,A,NY,77.244,"169,938.09",(19.90),(3.81),0,"169,914.38","169,914.39"
U.S. stocks and options - Account 2645853520,27/03/13,02/04/13,QTSJM7,Buy,"1,200",VMW,VMWARE INC CL A,A,NY,76.809,"(92,171.11)",(14.85),0.00,0,"(92,185.96)","(92,185.97)"
U.S. stocks and options - Account 2645853520,28/03/13,03/04/13,QTSWN6,Buy,150,AAPL,APPLE INC,A,NY,447.996,"(67,199.49)",(9.90),0.00,0,"(67,209.39)","(67,209.40)"
U.S. stocks and options - Account 2645853520,01/04/13,04/04/13,QTTQR0,Sell,600,CSCO,CISCO SYSTEMS INC,A,NY,21.143,"12,686.19",(6.00),(0.29),0,"12,679.90","12,679.91"
U.S. stocks and options - Account 2645853520,02/04/13,05/04/13,QTU8KU,Buy,50,AAPL,APPLE INC,A,NY,428.12,"(21,406.00)",(4.95),0.00,0,"(21,410.95)","(21,410.95)"
U.S. stocks and options - Account 2645853520,05/04/13,10/04/13,QTVHKK,Buy,200,AMRN,"AMARIN CORPORATION PLC, SPONSORED ADR NEW",A,NY,7.29,"(1,458.00)",(4.95),0.00,0,"(1,462.95)","(1,462.95)"
U.S. stocks and options - Account 2645853520,05/04/13,10/04/13,QTVHKM,Sell,100,VMW,VMWARE INC CL A,A,NY,76.71,"7,671.01",(4.95),(0.18),0,"7,665.88","7,665.88"
U.S. stocks and options - Account 2645853520,05/04/13,10/04/13,QTVHKL,Buy,100,VMW,VMWARE INC CL A,A,NY,75.839,"(7,583.99)",(4.95),0.00,0,"(7,588.94)","(7,588.94)"
U.S. stocks and options - Account 2645853520,10/04/13,15/04/13,QTWUY7,Sell,500,ORCL,ORACLE CORP,A,NY,33.46,"16,730.00",(5.00),(0.38),0,"16,724.62","16,724.62"
U.S. stocks and options - Account 2645853520,11/04/13,16/04/13,QTX9CX,Sell,200,AMRN,"AMARIN CORPORATION PLC, SPONSORED ADR NEW",A,NY,7.58,"1,516.00",(4.95),(0.04),0,"1,511.01","1,511.01"
U.S. stocks and options - Account 2645853520,16/04/13,19/04/13,QTYLRX,Buy,300,AMRN,"AMARIN CORPORATION PLC, SPONSORED ADR NEW",A,NY,7.08,"(2,124.00)",(4.95),0.00,0,"(2,128.95)","(2,128.95)"
U.S. stocks and options - Account 2645853520,25/04/13,30/04/13,QT1M3L,Buy,300,AMRN,"AMARIN CORPORATION PLC, SPONSORED ADR NEW",A,NY,6.41,"(1,923.00)",(4.95),0.00,0,"(1,927.95)","(1,927.95)"
U.S. stocks and options - Account 2645853520,26/04/13,01/05/13,QT230D,Sell,900,AMRN,"AMARIN CORPORATION PLC, SPONSORED ADR NEW",A,NY,6.85,"6,165.00",(9.00),(0.14),0,"6,155.86","6,155.86"
U.S. stocks and options - Account 2645853520,26/04/13,01/05/13,QT230C,Buy,300,AMRN,"AMARIN CORPORATION PLC, SPONSORED ADR NEW",A,NY,6.80,"(2,040.00)",(4.95),0.00,0,"(2,044.95)","(2,044.95)"
U.S. stocks and options - Account 2645853520,26/04/13,01/05/13,QT230E,Buy,150,VMW,"VMWARE INC CL A, AVG PRICE - ASK US FOR DETAILS",A,NY,71.356,"(10,703.49)",(9.90),0.00,0,"(10,713.39)","(10,713.40)"
U.S. stocks and options - Account 2645853520,29/04/13,02/05/13,QT2GNF,Sell,150,VMW,VMWARE INC CL A,A,NY,72.19,"10,828.51",(4.95),(0.25),0,"10,823.31","10,823.32"
U.S. stocks and options - Account 2645853520,30/04/13,03/05/13,QT2SEI,Sell,200,AAPL,APPLE INC,A,NY,444.31,"88,862.00",(4.95),(2.00),0,"88,855.05","88,855.05"
U.S. stocks and options - Account 2645853520,30/04/13,03/05/13,QT2SEJ,Buy,100,VMW,VMWARE INC CL A,A,NY,70.699,"(7,069.99)",(4.95),0.00,0,"(7,074.94)","(7,074.94)"
U.S. stocks and options - Account 2645853520,02/05/13,07/05/13,QT3MOF,Buy,400,AMRN,"AMARIN CORPORATION PLC, SPONSORED ADR NEW",A,NY,6.90,"(2,760.00)",(4.95),0.00,0,"(2,764.95)","(2,764.95)"
U.S. stocks and options - Account 2645853520,02/05/13,07/05/13,QT3MOH,Sell,200,VMW,VMWARE INC CL A,A,NY,71.45,"14,290.02",(4.95),(0.33),0,"14,284.74","14,284.74"
U.S. stocks and options - Account 2645853520,02/05/13,07/05/13,QT3MOG,Buy,100,VMW,VMWARE INC CL A,A,NY,71.049,"(7,104.99)",(4.95),0.00,0,"(7,109.94)","(7,109.94)"
U.S. stocks and options - Account 2645853520,03/05/13,08/05/13,QT4139,Sell,400,AMRN,"AMARIN CORPORATION PLC, SPONSORED ADR NEW, AVG PRICE - ASK US FOR DETAILS",A,NY,7.03,"2,812.00",(4.95),(0.07),0,"2,806.98","2,806.98"
U.S. stocks and options - Account 2645853520,09/05/13,14/05/13,QT5MRH,Buy,300,AMRN,"AMARIN CORPORATION PLC, SPONSORED ADR NEW",A,NY,6.88,"(2,064.00)",(4.95),0.00,0,"(2,068.95)","(2,068.95)"
U.S. stocks and options - Account 2645853520,09/05/13,14/05/13,QT5MRJ,Buy,100,STX,SEAGATE TECHNOLOGY PLC,A,NY,40.32,"(4,032.00)",(4.95),0.00,0,"(4,036.95)","(4,036.95)"
U.S. stocks and options - Account 2645853520,09/05/13,14/05/13,QT5MRI,Buy,100,VMW,VMWARE INC CL A,A,NY,75.55,"(7,555.00)",(4.95),0.00,0,"(7,559.95)","(7,559.95)"
U.S. stocks and options - Account 2645853520,10/05/13,15/05/13,QT62Y5,Sell,300,AMRN,"AMARIN CORPORATION PLC, SPONSORED ADR NEW", ,NY,7.22,"2,166.00",(4.95),(0.05),0,"2,161.00","2,161.00"
U.S. stocks and options - Account 2645853520,10/05/13,15/05/13,QT62Y6,Sell,100,VMW,VMWARE INC CL A, ,NY,76.56,"7,656.00",(4.95),(0.18),0,"7,650.87","7,650.87"
U.S. stocks and options - Account 2645853520,13/05/13,16/05/13,QT6F5F,Sell,500,STX,"SEAGATE TECHNOLOGY PLC, AVG PRICE - ASK US FOR DETAILS",A,NY,40.42,"20,210.00",(5.00),(0.46),0,"20,204.54","20,204.54"
U.S. stocks and options - Account 2645853520,13/05/13,16/05/13,QT6F5E,Buy,400,STX,"SEAGATE TECHNOLOGY PLC, AVG PRICE - ASK US FOR DETAILS",A,NY,40.187,"(16,075.00)",(4.95),0.00,0,"(16,079.95)","(16,079.95)"
U.S. stocks and options - Account 2645853520,14/05/13,17/05/13,QT6X2V,Buy,100,AAPL,APPLE INC,A,NY,444.07,"(44,407.00)",(4.95),0.00,0,"(44,411.95)","(44,411.95)"
U.S. stocks and options - Account 2645853520,15/05/13,20/05/13,QT7CMI,Buy,50,AAPL,APPLE INC,A,NY,424.35,"(21,217.50)",(4.95),0.00,0,"(21,222.45)","(21,222.45)"
U.S. stocks and options - Account 2645853520,16/05/13,21/05/13,QT7V70,Sell,200,CSCO,"CISCO SYSTEMS INC, SHORT., AVG PRICE - ASK US FOR DETAILS",A,NY,23.89,"4,778.10",(9.90),(0.11),0,"4,768.09","4,768.09"
U.S. stocks and options - Account 2645853520,17/05/13,22/05/13,QT86XH,Buy,50,AAPL,APPLE INC,A,NY,432.048,"(21,602.40)",(4.95),0.00,0,"(21,607.35)","(21,607.35)"
U.S. stocks and options - Account 2645853520,17/05/13,22/05/13,QT86XI,Buy,200,CSCO,"CISCO SYSTEMS INC, COVER SHORT., AVG PRICE - ASK US FOR DETAILS",A,NY,23.729,"(4,745.80)",(4.95),0.00,0,"(4,750.75)","(4,750.75)"
U.S. stocks and options - Account 2645853520,20/05/13,23/05/13,QT8QR4,Sell,200,AAPL,APPLE INC,A,NY,443.86,"88,772.00",(4.95),(1.99),0,"88,765.06","88,765.06"
U.S. stocks and options - Account 2645853520,22/05/13,28/05/13,QT9LVC,Buy,"1,000",CTXS,"CITRIX SYSTEMS INC, AVG PRICE - ASK US FOR DETAILS",A,NY,64.678,"(64,678.00)",(14.85),0.00,0,"(64,692.85)","(64,692.85)"
U.S. stocks and options - Account 2645853520,22/05/13,28/05/13,QT9LVB,Buy,100,CSCO,CISCO SYSTEMS INC,A,NY,23.50,"(2,350.00)",(4.95),0.00,0,"(2,354.95)","(2,354.95)"
U.S. stocks and options - Account 2645853520,22/05/13,28/05/13,QT9LVD,Buy,400,NVDA,NVIDIA CORP,A,NY,14.57,"(5,828.00)",(4.95),0.00,0,"(5,832.95)","(5,832.95)"
U.S. stocks and options - Account 2645853520,22/05/13,28/05/13,QT9LVF,Sell,500,ORCL,"ORACLE CORP, AVG PRICE - ASK US FOR DETAILS",A,NY,34.761,"17,380.50",(5.00),(0.31),0,"17,375.19","17,375.19"
U.S. stocks and options - Account 2645853520,22/05/13,28/05/13,QT9LVE,Buy,700,ORCL,"ORACLE CORP, AVG PRICE - ASK US FOR DETAILS",A,NY,34.495,"(24,146.99)",(14.85),0.00,0,"(24,161.84)","(24,161.85)"
U.S. stocks and options - Account 2645853520,22/05/13,28/05/13,QT9LVG,Buy,300,VMW,"VMWARE INC CL A, AVG PRICE - ASK US FOR DETAILS",A,NY,74.589,"(22,376.91)",(9.90),0.00,0,"(22,386.81)","(22,386.81)"
U.S. stocks and options - Account 2645853520,23/05/13,29/05/13,QTA18P,Sell,400,NVDA,NVIDIA CORP,A,NY,14.65,"5,860.00",(4.95),(0.11),0,"5,854.94","5,854.94"
U.S. stocks and options - Account 2645853520,23/05/13,29/05/13,QTA18Q,Buy,100,QCOM,QUALCOMM INC,A,NY,63.905,"(6,390.50)",(4.95),0.00,0,"(6,395.45)","(6,395.45)"
U.S. stocks and options - Account 2645853520,23/05/13,29/05/13,QTA18R,Buy,150,VMW,VMWARE INC CL A,A,NY,72.63,"(10,894.50)",(4.95),0.00,0,"(10,899.45)","(10,899.45)"
U.S. stocks and options - Account 2645853520,24/05/13,30/05/13,QTAGD3,Sell,100,QCOM,QUALCOMM INC,A,NY,64.12,"6,412.00",(4.95),(0.12),0,"6,406.93","6,406.93"
U.S. stocks and options - Account 2645853520,24/05/13,30/05/13,QTAGD4,Buy,100,VMW,VMWARE INC CL A,A,NY,71.12,"(7,112.00)",(4.95),0.00,0,"(7,116.95)","(7,116.95)"
U.S. stocks and options - Account 2645853520,28/05/13,31/05/13,QTAXS3,Sell,"1,000",CTXS,"CITRIX SYSTEMS INC, AVG PRICE - ASK US FOR DETAILS",A,NY,65.00,"65,000.03",(9.95),(1.14),0,"64,988.94","64,988.94"
U.S. stocks and options - Account 2645853520,28/05/13,31/05/13,QTAXS2,Sell,100,CSCO,CISCO SYSTEMS INC,A,NY,23.97,"2,397.00",(4.95),(0.05),0,"2,392.00","2,392.00"
U.S. stocks and options - Account 2645853520,28/05/13,31/05/13,QTAXS4,Sell,200,ORCL,ORACLE CORP,A,NY,34.59,"6,918.00",(4.95),(0.13),0,"6,912.92","6,912.92"
U.S. stocks and options - Account 2645853520,28/05/13,31/05/13,QTAXS5,Sell,550,VMW,"VMWARE INC CL A, AVG PRICE - ASK US FOR DETAILS",A,NY,73.62,"40,491.00",(5.50),(0.71),0,"40,484.79","40,484.79"
U.S. stocks and options - Account 2645853520,29/05/13,03/06/13,QTBA6P,Buy,100,EMC,EMC CORP-MASS,A,NY,23.64,"(2,364.00)",(4.95),0.00,0,"(2,368.95)","(2,368.95)"
U.S. stocks and options - Account 2645853520,29/05/13,03/06/13,QTBA6Q,Buy,200,FB,"FACEBOOK INC, CL A",A,NY,23.62,"(4,724.00)",(4.95),0.00,0,"(4,728.95)","(4,728.95)"
U.S. stocks and options - Account 2645853520,29/05/13,03/06/13,QTBA6S,Sell,850,VMW,"VMWARE INC CL A, AVG PRICE - ASK US FOR DETAILS",A,NY,72.295,"61,451.58",(14.85),(1.07),0,"61,435.66","61,435.66"
U.S. stocks and options - Account 2645853520,29/05/13,03/06/13,QTBA6R,Buy,850,VMW,"VMWARE INC CL A, AVG PRICE - ASK US FOR DETAILS",A,NY,72.103,"(61,287.94)",(24.75),0.00,0,"(61,312.69)","(61,312.70)"
U.S. stocks and options - Account 2645853520,30/05/13,04/06/13,QTBM3U,Sell,850,AMRN,"AMARIN CORPORATION PLC, SPONSORED ADR NEW, SHORT., AVG PRICE - ASK US FOR DETAILS",A,NY,7.013,"5,961.49",(9.90),(0.11),0,"5,951.48","5,951.49"
U.S. stocks and options - Account 2645853520,30/05/13,04/06/13,QTBM3T,Buy,850,AMRN,"AMARIN CORPORATION PLC, SPONSORED ADR NEW, COVER SHORT.",A,NY,6.98,"(5,933.00)",(8.50),0.00,0,"(5,941.50)","(5,941.50)"
U.S. stocks and options - Account 2645853520,30/05/13,04/06/13,QTBM3M,Sell,100,EMC,EMC CORP-MASS,A,NY,25.012,"2,501.25",(4.95),(0.05),0,"2,496.25","2,496.25"
U.S. stocks and options - Account 2645853520,30/05/13,04/06/13,QTBM3N,Sell,200,FB,"FACEBOOK INC, CL A",A,NY,24.23,"4,846.00",(4.95),(0.09),0,"4,840.96","4,840.96"
U.S. stocks and options - Account 2645853520,30/05/13,04/06/13,QTBM3O,Buy,"1,000",NOK,"NOKIA CORPORATION, SPONSORED ADR REPSTG 1 SER A",A,NY,3.499,"(3,499.90)",(9.95),0.00,0,"(3,509.85)","(3,509.85)"
U.S. stocks and options - Account 2645853520,30/05/13,04/06/13,QTBM3Q,Sell,100,BBRY,RESEARCH IN MOTION LTD,A,NY,14.39,"1,439.00",(4.95),(0.03),0,"1,434.02","1,434.02"
U.S. stocks and options - Account 2645853520,30/05/13,04/06/13,QTBM3P,Buy,100,BBRY,RESEARCH IN MOTION LTD,A,NY,14.25,"(1,425.00)",(4.95),0.00,0,"(1,429.95)","(1,429.95)"
U.S. stocks and options - Account 2645853520,30/05/13,04/06/13,QTBM3S,Sell,"1,600",VMW,"VMWARE INC CL A, AVG PRICE - ASK US FOR DETAILS",A,NY,71.356,"114,170.59",(14.95),(1.99),0,"114,153.65","114,153.66"
U.S. stocks and options - Account 2645853520,30/05/13,04/06/13,QTBM3R,Buy,"1,600",VMW,"VMWARE INC CL A, AVG PRICE - ASK US FOR DETAILS",A,NY,71.185,"(113,897.26)",(44.55),0.00,0,"(113,941.81)","(113,941.82)"
U.S. stocks and options - Account 2645853520,31/05/13,05/06/13,QTC05L,Sell,200,CTXS,CITRIX SYSTEMS INC,A,NY,65.015,"13,003.00",(4.95),(0.23),0,"12,997.82","12,997.82"
U.S. stocks and options - Account 2645853520,31/05/13,05/06/13,QTC05K,Buy,200,CTXS,"CITRIX SYSTEMS INC, AVG PRICE - ASK US FOR DETAILS",A,NY,64.674,"(12,934.82)",(4.95),0.00,0,"(12,939.77)","(12,939.77)"
U.S. stocks and options - Account 2645853520,31/05/13,05/06/13,QTC05N,Sell,"3,000",NOK,"NOKIA CORPORATION, SPONSORED ADR REPSTG 1 SER A, AVG PRICE - ASK US FOR DETAILS",A,NY,3.45,"10,352.91",(9.95),(0.19),0,"10,342.77","10,342.79"
U.S. stocks and options - Account 2645853520,31/05/13,05/06/13,QTC05M,Buy,"2,000",NOK,"NOKIA CORPORATION, SPONSORED ADR REPSTG 1 SER A",A,NY,3.41,"(6,820.00)",(9.95),0.00,0,"(6,829.95)","(6,829.95)"
U.S. stocks and options - Account 2645853520,31/05/13,05/06/13,QTC05P,Sell,400,QCOM,QUALCOMM INC,A,NY,64.10,"25,640.00",(4.95),(0.45),0,"25,634.60","25,634.60"
U.S. stocks and options - Account 2645853520,31/05/13,05/06/13,QTC05O,Buy,400,QCOM,"QUALCOMM INC, AVG PRICE - ASK US FOR DETAILS",A,NY,63.936,"(25,574.70)",(9.90),0.00,0,"(25,584.60)","(25,584.60)"
U.S. stocks and options - Account 2645853520,31/05/13,05/06/13,QTC05R,Sell,300,VMW,VMWARE INC CL A,A,NY,72.44,"21,732.00",(4.95),(0.38),0,"21,726.67","21,726.67"
U.S. stocks and options - Account 2645853520,31/05/13,05/06/13,QTC05Q,Buy,300,VMW,"VMWARE INC CL A, AVG PRICE - ASK US FOR DETAILS",A,NY,72.057,"(21,617.29)",(9.90),0.00,0,"(21,627.19)","(21,627.20)"
U.S. stocks and options - Account 2645853520,03/06/13,06/06/13,QTCDD0,Buy,"1,000",VMW,"VMWARE INC CL A, AVG PRICE - ASK US FOR DETAILS",A,NY,69.358,"(69,358.31)",(24.75),0.00,0,"(69,383.06)","(69,383.06)"
U.S. stocks and options - Account 2645853520,05/06/13,10/06/13,QTD2D1,Buy,200,VMW,VMWARE INC CL A,A,NY,67.159,"(13,431.98)",(4.95),0.00,0,"(13,436.93)","(13,436.93)"
U.S. stocks and options - Account 2645853520,06/06/13,11/06/13,QTDEDZ,Sell,"1,200",VMW,VMWARE INC CL A,A,NY,69.80,"83,760.12",(9.95),(1.46),0,"83,748.71","83,748.71"
U.S. stocks and options - Account 2645853520,07/06/13,12/06/13,QTDTLN,Sell,300,QCOM,QUALCOMM INC,A,NY,62.08,"18,624.00",(4.95),(0.33),0,"18,618.72","18,618.72"
U.S. stocks and options - Account 2645853520,07/06/13,12/06/13,QTDTLM,Buy,300,QCOM,"QUALCOMM INC, AVG PRICE - ASK US FOR DETAILS",A,NY,61.906,"(18,571.99)",(9.90),0.00,0,"(18,581.89)","(18,581.90)"
U.S. stocks and options - Account 2645853520,07/06/13,12/06/13,QTDTLP,Sell,300,VMW,VMWARE INC CL A,A,NY,70.64,"21,192.00",(4.95),(0.37),0,"21,186.68","21,186.68"
U.S. stocks and options - Account 2645853520,07/06/13,12/06/13,QTDTLO,Buy,300,VMW,"VMWARE INC CL A, AVG PRICE - ASK US FOR DETAILS",A,NY,70.223,"(21,066.99)",(9.90),0.00,0,"(21,076.89)","(21,076.89)"
U.S. stocks and options - Account 2645853520,10/06/13,13/06/13,QTE5HH,Buy,350,VMW,"VMWARE INC CL A, AVG PRICE - ASK US FOR DETAILS",A,NY,70.048,"(24,516.99)",(9.90),0.00,0,"(24,526.89)","(24,526.90)"
U.S. stocks and options - Account 2645853520,11/06/13,14/06/13,QTEG5Z,Sell,900,VMW,"VMWARE INC CL A, AVG PRICE - ASK US FOR DETAILS",A,NY,70.39,"63,351.18",(9.00),(1.11),0,"63,341.07","63,341.07"
U.S. stocks and options - Account 2645853520,11/06/13,14/06/13,QTEG5Y,Buy,550,VMW,"VMWARE INC CL A, AVG PRICE - ASK US FOR DETAILS",A,NY,70.043,"(38,524.04)",(9.90),0.00,0,"(38,533.94)","(38,533.95)"
U.S. stocks and options - Account 2645853520,12/06/13,17/06/13,QTERON,Buy,200,AAPL,"APPLE INC, AVG PRICE - ASK US FOR DETAILS",A,NY,437.532,"(87,506.50)",(14.85),0.00,0,"(87,521.35)","(87,521.35)"
U.S. stocks and options - Account 2645853520,12/06/13,17/06/13,QTEROQ,Sell,400,VMW,"VMWARE INC CL A, SHORT., AVG PRICE - ASK US FOR DETAILS",A,NY,71.681,"28,672.62",(14.85),(0.50),0,"28,657.27","28,657.28"
U.S. stocks and options - Account 2645853520,12/06/13,17/06/13,QTEROO,Buy,100,VMW,VMWARE INC CL A,A,NY,70.449,"(7,044.99)",(4.95),0.00,0,"(7,049.94)","(7,049.94)"
U.S. stocks and options - Account 2645853520,12/06/13,17/06/13,QTEROP,Buy,400,VMW,"VMWARE INC CL A, COVER SHORT., AVG PRICE - ASK US FOR DETAILS",A,NY,71.519,"(28,607.96)",(9.90),0.00,0,"(28,617.86)","(28,617.87)"
U.S. stocks and options - Account 2645853520,13/06/13,18/06/13,QTF21Q,Sell,200,VMW,VMWARE INC CL A,A,NY,70.611,"14,122.20",(4.95),(0.25),0,"14,117.00","14,117.00"
U.S. stocks and options - Account 2645853520,13/06/13,18/06/13,QTF21P,Buy,100,VMW,VMWARE INC CL A,A,NY,69.97,"(6,997.00)",(4.95),0.00,0,"(7,001.95)","(7,001.95)"
U.S. stocks and options - Account 2645853520,14/06/13,19/06/13,QTFD61,Buy,50,AAPL,APPLE INC,A,NY,434.46,"(21,723.00)",(4.95),0.00,0,"(21,727.95)","(21,727.95)"
U.S. stocks and options - Account 2645853520,17/06/13,20/06/13,QTFNQ5,Buy,30,AAPL,APPLE INC,A,NY,432.899,"(12,986.97)",(4.95),0.00,0,"(12,991.92)","(12,991.92)"
U.S. stocks and options - Account 2645853520,24/06/13,27/06/13,QTHJI1,Sell,50,AAPL,APPLE INC,A,NY,398.87,"19,943.50",(4.95),(0.35),0,"19,938.20","19,938.20"
U.S. stocks and options - Account 2645853520,09/07/13,12/07/13,QTLB3Y,Sell,150,VMW,VMWARE INC CL A,A,NY,66.33,"9,949.50",(4.95),(0.18),0,"9,944.37","9,944.37"
U.S. stocks and options - Account 2645853520,09/07/13,12/07/13,QTLB3X,Buy,150,VMW,VMWARE INC CL A,A,NY,65.339,"(9,800.98)",(4.95),0.00,0,"(9,805.93)","(9,805.94)"
U.S. stocks and options - Account 2645853520,16/07/13,19/07/13,QTMW1C,Buy,400,BBRY,RESEARCH IN MOTION LTD,A,NY,9.219,"(3,687.80)",(4.95),0.00,0,"(3,692.75)","(3,692.75)"
U.S. stocks and options - Account 2645853520,24/07/13,29/07/13,QTOVJZ,Buy,400,BBRY,"BLACKBERRY LTD, COM",A,NY,8.987,"(3,595.00)",(4.95),0.00,0,"(3,599.95)","(3,599.95)"
U.S. stocks and options - Account 2645853520,29/07/13,01/08/13,QTPULI,Sell,230,AAPL,"APPLE INC, AVG PRICE - ASK US FOR DETAILS",A,NY,448.022,"103,045.09",(4.95),(1.80),0,"103,038.34","103,038.35"
U.S. stocks and options - Account 2645853520,05/08/13,08/08/13,QTRG6Z,Sell,800,BBRY,"BLACKBERRY LTD, COM",A,NY,9.23,"7,384.00",(8.00),(0.13),0,"7,375.87","7,375.87"
U.S. stocks and options - Account 2645853520,24/09/13,27/09/13,QT3MJJ,Buy,300,EMC,EMC CORP-MASS,A,NY,25.90,"(7,770.00)",(4.95),0.00,0,"(7,774.95)","(7,774.95)"
U.S. stocks and options - Account 2645853520,24/09/13,27/09/13,QT3MJK,Buy,350,VMW,"VMWARE INC CL A, AVG PRICE - ASK US FOR DETAILS",A,NY,83.212,"(29,124.46)",(9.90),0.00,0,"(29,134.36)","(29,134.36)"
U.S. stocks and options - Account 2645853520,25/09/13,30/09/13,QT3Y7D,Sell,300,EMC,EMC CORP-MASS,A,NY,26.11,"7,833.03",(4.95),(0.14),0,"7,827.94","7,827.94"
U.S. stocks and options - Account 2645853520,25/09/13,30/09/13,QT3Y7E,Sell,350,VMW,VMWARE INC CL A,A,NY,83.58,"29,253.03",(4.95),(0.51),0,"29,247.57","29,247.58"
U.S. stocks and options - Account 2645853520,27/09/13,02/10/13,QT4M5A,Buy,400,VMW,"VMWARE INC CL A, AVG PRICE - ASK US FOR DETAILS",A,NY,83.159,"(33,263.98)",(14.85),0.00,0,"(33,278.83)","(33,278.83)"
U.S. stocks and options - Account 2645853520,03/10/13,08/10/13,QT6N7K,Buy,200,VMW,VMWARE INC CL A,A,NY,79.647,"(15,929.50)",(4.95),0.00,0,"(15,934.45)","(15,934.45)"
U.S. stocks and options - Account 2645853520,22/10/13,25/10/13,QTBIOC,Sell,600,VMW,VMWARE INC CL A,A,NY,88.67,"53,202.06",(6.00),(0.93),0,"53,195.13","53,195.13"
U.S. stocks and options - Account 2645853520,01/11/13,06/11/13,QTEHKF,Sell,300,VMW,VMWARE INC CL A,A,NY,80.64,"24,192.00",(4.95),(0.43),0,"24,186.62","24,186.62"
U.S. stocks and options - Account 2645853520,01/11/13,06/11/13,QTEHKE,Buy,300,VMW,"VMWARE INC CL A, AVG PRICE - ASK US FOR DETAILS",A,NY,80.343,"(24,102.99)",(9.90),0.00,0,"(24,112.89)","(24,112.90)"
U.S. stocks and options - Account 2645853520,04/11/13,07/11/13,QTEZLM,Sell,200,VMW,VMWARE INC CL A,A,NY,81.63,"16,326.02",(4.95),(0.29),0,"16,320.78","16,320.78"
U.S. stocks and options - Account 2645853520,04/11/13,07/11/13,QTEZLL,Buy,200,VMW,VMWARE INC CL A,A,NY,80.929,"(16,185.98)",(4.95),0.00,0,"(16,190.93)","(16,190.93)"
U.S. stocks and options - Account 2645853520,05/11/13,08/11/13,QTFC9R,Buy,400,VMW,"VMWARE INC CL A, AVG PRICE - ASK US FOR DETAILS",A,NY,80.715,"(32,286.00)",(9.90),0.00,0,"(32,295.90)","(32,295.90)"
U.S. stocks and options - Account 2645853520,06/11/13,12/11/13,QTFOFJ,Sell,400,VMW,"VMWARE INC CL A, AVG PRICE - ASK US FOR DETAILS",A,NY,81.35,"32,540.20",(4.95),(0.57),0,"32,534.68","32,534.68"
U.S. stocks and options - Account 2645853520,07/11/13,13/11/13,QTG1WW,Sell,"1,050",QCOM,"QUALCOMM INC, AVG PRICE - ASK US FOR DETAILS",A,NY,66.771,"70,110.49",(11.45),(1.22),0,"70,097.82","70,097.83"
U.S. stocks and options - Account 2645853520,07/11/13,13/11/13,QTG1WV,Buy,"1,050",QCOM,"QUALCOMM INC, AVG PRICE - ASK US FOR DETAILS",A,NY,66.52,"(69,846.99)",(24.75),0.00,0,"(69,871.74)","(69,871.75)"
U.S. stocks and options - Account 2645853520,07/11/13,13/11/13,QTG1WX,Buy,300,VMW,"VMWARE INC CL A, AVG PRICE - ASK US FOR DETAILS",A,NY,81.099,"(24,329.91)",(9.90),0.00,0,"(24,339.81)","(24,339.82)"
U.S. stocks and options - Account 2645853520,08/11/13,14/11/13,QTGHPA,Buy,300,VMW,"VMWARE INC CL A, AVG PRICE - ASK US FOR DETAILS",A,NY,80.316,"(24,094.98)",(9.90),0.00,0,"(24,104.88)","(24,104.88)"
U.S. stocks and options - Account 2645853520,12/11/13,15/11/13,QTH4ID,Sell,600,VMW,VMWARE INC CL A,A,NY,81.04,"48,624.06",(6.00),(0.85),0,"48,617.21","48,617.21"
U.S. stocks and options - Account 2645853520,13/11/13,18/11/13,QTHG42,Sell,100,CTXS,CITRIX SYSTEMS INC,A,NY,58.13,"5,813.00",(4.95),(0.11),0,"5,807.94","5,807.94"
U.S. stocks and options - Account 2645853520,13/11/13,18/11/13,QTHG41,Buy,100,CTXS,CITRIX SYSTEMS INC,A,NY,57.33,"(5,733.00)",(4.95),0.00,0,"(5,737.95)","(5,737.95)"
U.S. stocks and options - Account 2645853520,13/11/13,18/11/13,QTHG44,Sell,300,VMW,VMWARE INC CL A,A,NY,81.13,"24,339.00",(4.95),(0.43),0,"24,333.62","24,333.62"
U.S. stocks and options - Account 2645853520,13/11/13,18/11/13,QTHG43,Buy,850,VMW,"VMWARE INC CL A, AVG PRICE - ASK US FOR DETAILS",A,NY,80.092,"(68,078.70)",(24.75),0.00,0,"(68,103.45)","(68,103.46)"
U.S. stocks and options - Account 2645853520,14/11/13,19/11/13,QTHSC9,Buy,300,CTXS,"CITRIX SYSTEMS INC, AVG PRICE - ASK US FOR DETAILS",A,NY,55.959,"(16,787.85)",(9.90),0.00,0,"(16,797.75)","(16,797.75)"
U.S. stocks and options - Account 2645853520,14/11/13,19/11/13,QTHSCA,Buy,100,VMW,VMWARE INC CL A,A,NY,78.10,"(7,810.00)",(4.95),0.00,0,"(7,814.95)","(7,814.95)"
U.S. stocks and options - Account 2645853520,15/11/13,20/11/13,QTI77K,Sell,300,CTXS,"CITRIX SYSTEMS INC, AVG PRICE - ASK US FOR DETAILS",A,NY,56.12,"16,836.09",(4.95),(0.30),0,"16,830.84","16,830.85"
U.S. stocks and options - Account 2645853520,15/11/13,20/11/13,QTI77L,Buy,350,VMW,VMWARE INC CL A,A,NY,78.33,"(27,415.50)",(4.95),0.00,0,"(27,420.45)","(27,420.45)"
U.S. stocks and options - Account 2645853520,20/11/13,25/11/13,QTJBPF,Sell,"1,000",VMW,VMWARE INC CL A,A,NY,79.39,"79,390.10",(9.95),(1.39),0,"79,378.76","79,378.76"
U.S. stocks and options - Account 2645853520,20/11/13,25/11/13,QTJBPE,Buy,150,VMW,VMWARE INC CL A,A,NY,78.47,"(11,770.50)",(4.95),0.00,0,"(11,775.45)","(11,775.45)"
U.S. stocks and options - Account 2645853520,21/11/13,26/11/13,QTJO44,Sell,150,VMW,VMWARE INC CL A,A,NY,78.77,"11,815.51",(4.95),(0.21),0,"11,810.35","11,810.36"
